..................
----------------------------------------------------------------------
Ran 18 tests in 0.004s

OK
Name             Stmts   Miss Branch BrPart  Cover   Missing
------------------------------------------------------------
Collatz.py          61      0     28      0   100%
TestCollatz.py      77      0      0      0   100%
------------------------------------------------------------
TOTAL              138      0     28      0   100%
