................
----------------------------------------------------------------------
Ran 16 tests in 0.004s

OK
Name             Stmts   Miss Branch BrPart  Cover   Missing
------------------------------------------------------------
Collatz.py          40      0     18      0   100%
TestCollatz.py      69      0      0      0   100%
------------------------------------------------------------
TOTAL              109      0     18      0   100%
