.........................
----------------------------------------------------------------------
Ran 25 tests in 7.689s

OK
Name             Stmts   Miss Branch BrPart  Cover   Missing
------------------------------------------------------------
Collatz.py          49      0     24      0   100%
TestCollatz.py      97      0      0      0   100%
------------------------------------------------------------
TOTAL              146      0     24      0   100%
